module github.com/oracle/terraform-provider-oci

require (
	github.com/fatih/color v1.7.0
	github.com/hashicorp/go-cty v1.4.1-0.20200414143053-d3edf31b6320
	github.com/hashicorp/go-multierror v1.0.0
	github.com/hashicorp/hcl2 v0.0.0-20190618163856-0b64543c968c
	github.com/hashicorp/terraform-exec v0.14.0
	github.com/hashicorp/terraform-plugin-sdk/v2 v2.7.0
	github.com/stretchr/testify v1.7.0
	golang.org/x/mod v0.6.0-dev.0.20220419223038-86c51ed26bb4
	gopkg.in/yaml.v2 v2.3.0
)

require (
	cloud.google.com/go v0.65.0 // indirect
	cloud.google.com/go/storage v1.10.0 // indirect
	github.com/agext/levenshtein v1.2.2 // indirect
	github.com/apparentlymart/go-textseg v1.0.0 // indirect
	github.com/apparentlymart/go-textseg/v12 v12.0.0 // indirect
	github.com/apparentlymart/go-textseg/v13 v13.0.0 // indirect
	github.com/aws/aws-sdk-go v1.37.0 // indirect
	github.com/bgentry/go-netrc v0.0.0-20140422174119-9fd32a8b3d3d // indirect
	github.com/davecgh/go-spew v1.1.1 // indirect
	github.com/gofrs/flock v0.8.1 // indirect
	github.com/golang/groupcache v0.0.0-20200121045136-8c9f03a8e57e // indirect
	github.com/golang/protobuf v1.4.2 // indirect
	github.com/google/go-cmp v0.5.6 // indirect
	github.com/googleapis/gax-go/v2 v2.0.5 // indirect
	github.com/hashicorp/errwrap v1.0.0 // indirect
	github.com/hashicorp/go-checkpoint v0.5.0 // indirect
	github.com/hashicorp/go-cleanhttp v0.5.2 // indirect
	github.com/hashicorp/go-getter v1.5.3 // indirect
	github.com/hashicorp/go-hclog v0.15.0 // indirect
	github.com/hashicorp/go-plugin v1.4.1 // indirect
	github.com/hashicorp/go-safetemp v1.0.0 // indirect
	github.com/hashicorp/go-uuid v1.0.1 // indirect
	github.com/hashicorp/go-version v1.3.0
	github.com/hashicorp/hcl/v2 v2.8.2 // indirect
	github.com/hashicorp/logutils v1.0.0 // indirect
	github.com/hashicorp/terraform-json v0.12.0 // indirect
	github.com/hashicorp/terraform-plugin-go v0.3.0 // indirect
	github.com/hashicorp/yamux v0.0.0-20181012175058-2f1d1f20f75d // indirect
	github.com/jmespath/go-jmespath v0.4.0 // indirect
	github.com/jstemmer/go-junit-report v0.9.1 // indirect
	github.com/klauspost/compress v1.11.2 // indirect
	github.com/mattn/go-colorable v0.1.4 // indirect
	github.com/mattn/go-isatty v0.0.10 // indirect
	github.com/mitchellh/copystructure v1.2.0 // indirect
	github.com/mitchellh/go-homedir v1.1.0 // indirect
	github.com/mitchellh/go-testing-interface v1.0.4 // indirect
	github.com/mitchellh/go-wordwrap v1.0.0 // indirect
	github.com/mitchellh/mapstructure v1.1.2 // indirect
	github.com/mitchellh/reflectwalk v1.0.2 // indirect
	github.com/oklog/run v1.0.0 // indirect
	github.com/oracle/oci-go-sdk/v65 v65.18.0
	github.com/pmezard/go-difflib v1.0.0 // indirect
	github.com/sony/gobreaker v0.5.0 // indirect
	github.com/ulikunitz/xz v0.5.8 // indirect
	github.com/vmihailenco/msgpack v4.0.4+incompatible // indirect
	github.com/zclconf/go-cty v1.8.4 // indirect
	go.opencensus.io v0.22.4 // indirect
	golang.org/x/crypto v0.0.0-20210921155107-089bfa567519 // indirect
	golang.org/x/lint v0.0.0-20210508222113-6edffad5e616 // indirect
	golang.org/x/net v0.0.0-20211015210444-4f30a5c0130f // indirect
	golang.org/x/oauth2 v0.0.0-20200902213428-5d25da1a8d43 // indirect
	golang.org/x/sys v0.0.0-20220209214540-3681064d5158 // indirect
	golang.org/x/text v0.3.7 // indirect
	golang.org/x/tools v0.1.11 // indirect
	google.golang.org/api v0.34.0 // indirect
	google.golang.org/appengine v1.6.6 // indirect
	google.golang.org/genproto v0.0.0-20200904004341-0bd0a958aa1d // indirect
	google.golang.org/grpc v1.32.0 // indirect
	google.golang.org/protobuf v1.25.0 // indirect
	gopkg.in/yaml.v3 v3.0.0-20200313102051-9f266ea9e77c // indirect
)

// Uncomment this line to get OCI Go SDK from local source instead of github
//replace github.com/oracle/oci-go-sdk => ../../oracle/oci-go-sdk

go 1.17
